task1/top.vcd
$version Generated by VerilatedVcd $end
$date Sun Nov 10 22:07:14 2024 $end
$timescale 1ps $end

 $scope module TOP $end
  $var wire  1 # clk $end
  $var wire  8 ' count [7:0] $end
  $var wire  8 & dout [7:0] $end
  $var wire  1 % en $end
  $var wire  8 ( incr [7:0] $end
  $var wire  1 $ rst $end
  $scope module singen $end
   $var wire 32 ) WIDTH [31:0] $end
   $var wire  1 # clk $end
   $var wire  8 ' count [7:0] $end
   $var wire  8 & dout [7:0] $end
   $var wire  1 % en $end
   $var wire  8 ( incr [7:0] $end
   $var wire  1 $ rst $end
   $scope module Mycounter $end
    $var wire 32 ) WIDTH [31:0] $end
    $var wire  1 # clk $end
    $var wire  8 ' count [7:0] $end
    $var wire  1 % en $end
    $var wire  8 ( incr [7:0] $end
    $var wire  1 $ rst $end
   $upscope $end
   $scope module Myrom $end
    $var wire 32 ) ADDRESS_WIDTH [31:0] $end
    $var wire 32 ) DATA_WIDTH [31:0] $end
    $var wire  8 ' addr [7:0] $end
    $var wire  1 # clk $end
    $var wire  8 & dout [7:0] $end
   $upscope $end
  $upscope $end
 $upscope $end
$enddefinitions $end


#0
1#
1$
1%
b00000000 &
b00000001 '
b00000000 (
b00000000000000000000000000001000 )
#1
0#
#2
1#
b11111101 &
b00000000 '
b00001101 (
#3
0#
#4
1#
b11111110 &
#5
0#
#6
1#
0$
#7
0#
#8
1#
b00001101 '
#9
0#
#10
1#
b11110111 &
b00011010 '
#11
0#
#12
1#
b11100101 &
b00100111 '
#13
0#
#14
1#
b11001000 &
b00110100 '
#15
0#
#16
1#
b10100011 &
b01000001 '
#17
0#
#18
1#
b01111011 &
b01001110 '
#19
0#
#20
1#
b01010100 &
b01011011 '
#21
0#
#22
1#
b00110000 &
b01101000 '
#23
0#
#24
1#
b00010101 &
b01110101 '
#25
0#
#26
1#
b00000100 &
b10000010 '
#27
0#
#28
1#
b00000000 &
b10001111 '
#29
0#
#30
1#
b00001000 &
b10011100 '
#31
0#
#32
1#
1$
b00011100 &
b10101001 '
#33
0#
b00000000 '
#34
1#
0$
b11111110 &
#35
0#
#36
1#
b00001101 '
#37
0#
#38
1#
b11110111 &
b00011010 '
#39
0#
#40
1#
b11100101 &
b00100111 '
#41
0#
#42
1#
b11001000 &
b00110100 '
#43
0#
#44
1#
b10100011 &
b01000001 '
#45
0#
#46
1#
b01111011 &
b01001110 '
#47
0#
#48
1#
b01010100 &
b01011011 '
#49
0#
#50
1#
b00110000 &
b01101000 '
#51
0#
#52
1#
b00010101 &
b01110101 '
#53
0#
#54
1#
b00000100 &
b10000010 '
#55
0#
#56
1#
b00000000 &
b10001111 '
#57
0#
#58
1#
b00001000 &
b10011100 '
#59
0#
#60
1#
b00011100 &
b10101001 '
#61
0#
#62
1#
b00111011 &
b10110110 '
#63
0#
#64
1#
b01100000 &
b11000011 '
#65
0#
#66
1#
b10001000 &
b11010000 '
#67
0#
#68
1#
b10101111 &
b11011101 '
#69
0#
#70
1#
b11010001 &
b11101010 '
#71
0#
#72
1#
b11101011 &
b11110111 '
#73
0#
#74
1#
b11111010 &
b00000100 '
#75
0#
#76
1#
b11111101 &
b00010001 '
#77
0#
#78
1#
b11110011 &
b00011110 '
#79
0#
#80
1#
b11011101 &
b00101011 '
#81
0#
#82
1#
b10111101 &
b00111000 '
#83
0#
#84
1#
b10010111 &
b01000101 '
#85
0#
#86
1#
b01101111 &
b01010010 '
#87
0#
#88
1#
b01001000 &
b01011111 '
#89
0#
#90
1#
b00100111 &
b01101100 '
#91
0#
#92
1#
b00001110 &
b01111001 '
#93
0#
#94
1#
b00000001 &
b10000110 '
#95
0#
#96
1#
b10010011 '
#97
0#
#98
1#
b00001101 &
b10100000 '
#99
0#
#100
1#
b00100101 &
b10101101 '
#101
0#
#102
1#
b01000101 &
b10111010 '
#103
0#
#104
1#
b01101100 &
b11000111 '
#105
0#
#106
1#
b10010100 &
b11010100 '
#107
0#
#108
1#
b10111010 &
b11100001 '
#109
0#
#110
1#
b11011010 &
b11101110 '
#111
0#
#112
1#
b11110001 &
b11111011 '
#113
0#
#114
1#
b11111101 &
b00001000 '
#115
0#
#116
1#
b11111011 &
b00010101 '
#117
0#
#118
1#
b11101101 &
b00100010 '
#119
0#
#120
1#
b11010100 &
b00101111 '
#121
0#
#122
1#
b10110010 &
b00111100 '
#123
0#
#124
1#
b10001011 &
b01001001 '
#125
0#
#126
1#
b01100011 &
b01010110 '
#127
0#
#128
1#
b00111101 &
b01100011 '
#129
0#
#130
1#
b00011110 &
b01110000 '
#131
0#
#132
1#
b00001001 &
b01111101 '
#133
0#
#134
1#
b00000000 &
b10001010 '
#135
0#
#136
1#
b00000011 &
b10010111 '
#137
0#
#138
1#
b00010011 &
b10100100 '
#139
0#
#140
1#
b00101110 &
b10110001 '
#141
0#
#142
1#
b01010001 &
b10111110 '
#143
0#
#144
1#
b01111000 &
b11001011 '
#145
0#
#146
1#
b10100000 &
b11011000 '
#147
0#
#148
1#
b11000101 &
b11100101 '
#149
0#
#150
1#
b11100011 &
b11110010 '
#151
0#
#152
1#
b11110110 &
b11111111 '
#153
0#
#154
1#
b11111101 &
b00001100 '
#155
0#
#156
1#
b11111000 &
b00011001 '
#157
0#
#158
1#
b11100110 &
b00100110 '
#159
0#
#160
1#
b11001010 &
b00110011 '
#161
0#
#162
1#
b10100110 &
b01000000 '
#163
0#
#164
1#
b01111110 &
b01001101 '
#165
0#
#166
1#
b01010111 &
b01011010 '
#167
0#
#168
1#
b00110011 &
b01100111 '
#169
0#
#170
1#
b00010111 &
b01110100 '
#171
0#
#172
1#
b00000101 &
b10000001 '
#173
0#
#174
1#
b00000000 &
b10001110 '
#175
0#
#176
1#
b00000111 &
b10011011 '
#177
0#
#178
1#
b00011010 &
b10101000 '
#179
0#
#180
1#
b00111000 &
b10110101 '
#181
0#
#182
1#
b01011101 &
b11000010 '
#183
0#
#184
1#
b10000101 &
b11001111 '
#185
0#
#186
1#
b10101100 &
b11011100 '
#187
0#
#188
1#
b11001111 &
b11101001 '
#189
0#
#190
1#
b11101010 &
b11110110 '
#191
0#
#192
1#
b11111010 &
b00000011 '
#193
0#
#194
1#
b11111101 &
b00010000 '
#195
0#
#196
1#
b11110100 &
b00011101 '
#197
0#
#198
1#
b11011111 &
b00101010 '
#199
0#
#200
1#
b11000000 &
b00110111 '
#201
0#
#202
1#
b10011010 &
b01000100 '
#203
0#
#204
1#
b01110010 &
b01010001 '
#205
0#
#206
1#
b01001011 &
b01011110 '
#207
0#
#208
1#
b00101001 &
b01101011 '
#209
0#
#210
1#
b00010000 &
b01111000 '
#211
0#
#212
1#
b00000010 &
b10000101 '
#213
0#
#214
1#
b00000000 &
b10010010 '
#215
0#
#216
1#
b00001100 &
b10011111 '
#217
0#
#218
1#
b00100011 &
b10101100 '
#219
0#
#220
1#
b01000011 &
b10111001 '
#221
0#
#222
1#
b01101001 &
b11000110 '
#223
0#
#224
1#
b10010001 &
b11010011 '
#225
0#
#226
1#
b10111000 &
b11100000 '
#227
0#
#228
1#
b11011000 &
b11101101 '
#229
0#
#230
1#
b11110000 &
b11111010 '
#231
0#
#232
1#
b11111100 &
b00000111 '
#233
0#
#234
1#
b00010100 '
#235
0#
#236
1#
b11101111 &
b00100001 '
#237
0#
#238
1#
b11010110 &
b00101110 '
#239
0#
#240
1#
b10110101 &
b00111011 '
#241
0#
#242
1#
b10001110 &
b01001000 '
#243
0#
#244
1#
b01100110 &
b01010101 '
#245
0#
#246
1#
b01000000 &
b01100010 '
#247
0#
#248
1#
b00100000 &
b01101111 '
#249
0#
#250
1#
b00001010 &
b01111100 '
#251
0#
#252
1#
b00000000 &
b10001001 '
#253
0#
#254
1#
b00000011 &
b10010110 '
#255
0#
#256
1#
b00010010 &
b10100011 '
#257
0#
#258
1#
b00101100 &
b10110000 '
#259
0#
#260
1#
b01001110 &
b10111101 '
#261
0#
#262
1#
b01110101 &
b11001010 '
#263
0#
#264
1#
b10011101 &
b11010111 '
#265
0#
#266
1#
b11000010 &
b11100100 '
#267
0#
#268
1#
b11100001 &
b11110001 '
#269
0#
#270
1#
b11110101 &
b11111110 '
#271
0#
#272
1#
b11111101 &
b00001011 '
#273
0#
#274
1#
b11111001 &
b00011000 '
#275
0#
#276
1#
b11101000 &
b00100101 '
#277
0#
#278
1#
b11001101 &
b00110010 '
#279
0#
#280
1#
b10101001 &
b00111111 '
b00001100 (
#281
0#
#282
1#
b10000010 &
b01001011 '
#283
0#
#284
1#
b01011101 &
b01010111 '
#285
0#
#286
1#
b00111011 &
b01100011 '
#287
0#
#288
1#
b00011110 &
b01101111 '
#289
0#
#290
1#
b00001010 &
b01111011 '
b00001011 (
#291
0#
#292
1#
b00000000 &
b10000110 '
#293
0#
#294
1#
b00000001 &
b10010001 '
b00001010 (
#295
0#
#296
1#
b00001010 &
b10011011 '
b00001001 (
#297
0#
#298
1#
b00011010 &
b10100100 '
b00001000 (
#299
0#
#300
1#
b00101110 &
b10101100 '
b00000110 (
#301
0#
#302
1#
b01000011 &
b10110010 '
b00000100 (
#303
0#
#304
1#
b01010100 &
b10110110 '
b00000011 (
#305
0#
#306
1#
b01100000 &
b10111001 '
b00000010 (
#307
0#
#308
1#
b01101001 &
b10111011 '
#309
0#
#310
1#
b01101111 &
b10111101 '
#311
0#
#312
1#
b01110101 &
b10111111 '
#313
0#
#314
1#
b01111011 &
b11000001 '
#315
0#
#316
1#
b10000010 &
b11000011 '
#317
0#
#318
1#
b10001000 &
b11000101 '
#319
0#
#320
1#
b10001110 &
b11000111 '
#321
0#
#322
1#
b10010100 &
b11001001 '
#323
0#
#324
1#
b10011010 &
b11001011 '
#325
0#
#326
1#
b10100000 &
b11001101 '
#327
0#
#328
1#
b10100110 &
b11001111 '
#329
0#
#330
1#
b10101100 &
b11010001 '
#331
0#
#332
1#
b10110010 &
b11010011 '
#333
0#
#334
1#
b10111000 &
b11010101 '
#335
0#
#336
1#
b10111101 &
b11010111 '
#337
0#
#338
1#
b11000010 &
b11011001 '
#339
0#
#340
1#
b11001000 &
b11011011 '
#341
0#
#342
1#
b11001101 &
b11011101 '
#343
0#
#344
1#
b11010001 &
b11011111 '
#345
0#
#346
1#
b11010110 &
b11100001 '
#347
0#
#348
1#
b11011010 &
b11100011 '
#349
0#
#350
1#
b11011111 &
b11100101 '
#351
0#
#352
1#
b11100011 &
b11100111 '
#353
0#
#354
1#
b11100110 &
b11101001 '
#355
0#
#356
1#
b11101010 &
b11101011 '
#357
0#
#358
1#
b11101101 &
b11101101 '
#359
0#
#360
1#
b11110000 &
b11101111 '
#361
0#
#362
1#
b11110011 &
b11110001 '
#363
0#
#364
1#
b11110101 &
b11110011 '
#365
0#
#366
1#
b11110111 &
b11110101 '
#367
0#
#368
1#
b11111001 &
b11110111 '
#369
0#
#370
1#
b11111010 &
b11111001 '
#371
0#
#372
1#
b11111100 &
b11111011 '
#373
0#
#374
1#
b11111101 &
b11111101 '
#375
0#
#376
1#
b11111111 '
#377
0#
#378
1#
b00000001 '
#379
0#
#380
1#
b00000011 '
#381
0#
#382
1#
b00000101 '
#383
0#
#384
1#
b00000111 '
b00000001 (
#385
0#
#386
1#
b11111100 &
b00001000 '
#387
0#
#388
1#
b11111011 &
b00001001 '
b00000000 (
#389
0#
#390
1#
b11111010 &
